D:\projetMaison\src\main\java\com\nespalier\projetMaison\controller\BienController.java
D:\projetMaison\src\main\java\com\nespalier\projetMaison\repo\IBienRepo.java
D:\projetMaison\src\main\java\com\nespalier\projetMaison\model\Bien.java
D:\projetMaison\src\main\java\com\nespalier\projetMaison\commons\interfaces\BaseController.java
D:\projetMaison\src\main\java\com\nespalier\projetMaison\service\ITypeDocumentService.java
D:\projetMaison\src\main\java\com\nespalier\projetMaison\commons\constantes\projetMaisonConstante.java
D:\projetMaison\src\main\java\com\nespalier\projetMaison\service\IBienService.java
D:\projetMaison\src\main\java\com\nespalier\projetMaison\service\impl\TypePrestataireServiceImpl.java
D:\projetMaison\src\main\java\com\nespalier\projetMaison\service\IPrestataireService.java
D:\projetMaison\src\main\java\com\nespalier\projetMaison\repo\IDocumentRepo.java
D:\projetMaison\src\main\java\com\nespalier\projetMaison\service\impl\BienPrestataireServiceImpl.java
D:\projetMaison\src\main\java\com\nespalier\projetMaison\repo\ITypeDocumentRepo.java
D:\projetMaison\src\main\java\com\nespalier\projetMaison\service\impl\TypeDocumentServiceImpl.java
D:\projetMaison\src\main\java\com\nespalier\projetMaison\service\impl\BienServiceImpl.java
D:\projetMaison\src\main\java\com\nespalier\projetMaison\service\impl\StatutServiceImpl.java
D:\projetMaison\src\main\java\com\nespalier\projetMaison\repo\ITypePrestataireRepo.java
D:\projetMaison\src\main\java\com\nespalier\projetMaison\repo\IPrestataireRepo.java
D:\projetMaison\src\main\java\com\nespalier\projetMaison\model\BienPrestataire.java
D:\projetMaison\src\main\java\com\nespalier\projetMaison\service\impl\PrestataireServiceImpl.java
D:\projetMaison\src\main\java\com\nespalier\projetMaison\repo\IStatutRepo.java
D:\projetMaison\src\main\java\com\nespalier\projetMaison\repo\IBienPrestataireRepo.java
D:\projetMaison\src\main\java\com\nespalier\projetMaison\service\IStatutService.java
D:\projetMaison\src\main\java\com\nespalier\projetMaison\commons\service\DocumentService.java
D:\projetMaison\src\main\java\com\nespalier\projetMaison\service\IDocumentService.java
D:\projetMaison\src\main\java\com\nespalier\projetMaison\model\Prestataire.java
D:\projetMaison\src\main\java\com\nespalier\projetMaison\service\impl\DocumentServiceImpl.java
D:\projetMaison\src\main\java\com\nespalier\projetMaison\controller\StatutController.java
D:\projetMaison\src\main\java\com\nespalier\projetMaison\commons\interfaces\BaseCrud.java
D:\projetMaison\src\main\java\com\nespalier\projetMaison\controller\DocumentController.java
D:\projetMaison\src\main\java\com\nespalier\projetMaison\model\Statut.java
D:\projetMaison\src\main\java\com\nespalier\projetMaison\model\TypePrestataire.java
D:\projetMaison\src\main\java\com\nespalier\projetMaison\service\ITypePrestataireService.java
D:\projetMaison\src\main\java\com\nespalier\projetMaison\model\TypeDocument.java
D:\projetMaison\src\main\java\com\nespalier\projetMaison\model\Document.java
D:\projetMaison\src\main\java\com\nespalier\projetMaison\ProjetMaisonApplication.java
D:\projetMaison\src\main\java\com\nespalier\projetMaison\service\IBienPrestataireService.java
